URL do pedido
http://localhost:4001/api/inventory/stock-movements?page=1&limit=10
Método de pedido
GET
Código de estado
304 Not Modified
Endereço remoto
127.0.0.1:4001
Política do referenciador
strict-origin-when-cross-origin
access-control-allow-credentials
true
access-control-allow-origin
http://localhost:3000
connection
keep-alive
date
Wed, 10 Sep 2025 19:12:04 GMT
etag
W/"dec-TzK2TzQUwzizk9bpdzUeyCB/3iQ"
keep-alive
timeout=5
vary
Origin
x-powered-by
Express
accept
application/json
accept-encoding
gzip, deflate, br, zstd
accept-language
en,es;q=0.9,es-ES;q=0.8,pt;q=0.7
authorization
Bearer eyJhbGciOiJIUzI1NiIsInR5cCI6IkpXVCJ9.eyJ1c2VySWQiOiJhYTJhZWRhZS04YjQ1LTExZjAtYWVmYS0zNGI0ZWQ4NmQ4YTkiLCJlbWFpbCI6ImFkbWluQGJlYmlkYXMtYW5nb2xhLmFvIiwicm9sZSI6ImFkbWluIiwidHlwZSI6ImFjY2VzcyIsImlhdCI6MTc1NzUwMjU2OSwiZXhwIjoxNzU3NTg4OTY5LCJhdWQiOiJzZ3N0LWNsaWVudCIsImlzcyI6InNnc3QtYXBpIn0.8JvA4Dct5l7lEjMaBBoiRsaU78NU-1zHOB3Psoh9Nco
connection
keep-alive
host
localhost:4001
if-none-match
W/"dec-TzK2TzQUwzizk9bpdzUeyCB/3iQ"
origin
http://localhost:3000
referer
http://localhost:3000/
sec-ch-ua
"Chromium";v="140", "Not=A?Brand";v="24", "Google Chrome";v="140"
sec-ch-ua-mobile
?0
sec-ch-ua-platform
"macOS"
sec-fetch-dest
empty
sec-fetch-mode
cors
sec-fetch-site
same-site
user-agent
Mozilla/5.0 (Macintosh; Intel Mac OS X 10_15_7) AppleWebKit/537.36 (KHTML, like Gecko) Chrome/140.0.0.0 Safari/537.36

Response:
{
    "success": true,
    "message": "Movimentos de stock carregados com sucesso",
    "data": [
        {
            "id": "00ec2161-8e74-11f0-aefa-34b4ed86d8a9",
            "productId": "ff9a7d63-8e73-11f0-aefa-34b4ed86d8a9",
            "warehouseId": "ff44ba9c-8e73-11f0-aefa-34b4ed86d8a9",
            "type": "in",
            "quantity": 259,
            "reference": "REC-1757528932828-714",
            "reason": "Recebimento inicial de stock",
            "userId": "fe17333c-8e73-11f0-aefa-34b4ed86d8a9",
            "createdAt": "2025-09-10T18:28:53.000Z"
        },
        {
            "id": "00ec23b6-8e74-11f0-aefa-34b4ed86d8a9",
            "productId": "ff9a7d63-8e73-11f0-aefa-34b4ed86d8a9",
            "warehouseId": "ff44ba9c-8e73-11f0-aefa-34b4ed86d8a9",
            "type": "out",
            "quantity": 18,
            "reference": "SALE-1757528932828-649",
            "reason": "Venda para cliente",
            "userId": "fe17333c-8e73-11f0-aefa-34b4ed86d8a9",
            "createdAt": "2025-09-10T18:28:53.000Z"
        },
        {
            "id": "00ec2477-8e74-11f0-aefa-34b4ed86d8a9",
            "productId": "ff9a7d63-8e73-11f0-aefa-34b4ed86d8a9",
            "warehouseId": "ff44ba9c-8e73-11f0-aefa-34b4ed86d8a9",
            "type": "adjustment",
            "quantity": 4,
            "reference": "ADJ-1757528932828-174",
            "reason": "Ajuste de inventário após contagem",
            "userId": "fe17333c-8e73-11f0-aefa-34b4ed86d8a9",
            "createdAt": "2025-09-10T18:28:53.000Z"
        },
        {
            "id": "00ec24d7-8e74-11f0-aefa-34b4ed86d8a9",
            "productId": "ff9a7d63-8e73-11f0-aefa-34b4ed86d8a9",
            "warehouseId": "ff44bc93-8e73-11f0-aefa-34b4ed86d8a9",
            "type": "in",
            "quantity": 136,
            "reference": "REC-1757528932828-353",
            "reason": "Recebimento inicial de stock",
            "userId": "fe17333c-8e73-11f0-aefa-34b4ed86d8a9",
            "createdAt": "2025-09-10T18:28:53.000Z"
        },
        {
            "id": "00ec2529-8e74-11f0-aefa-34b4ed86d8a9",
            "productId": "ff9a7d63-8e73-11f0-aefa-34b4ed86d8a9",
            "warehouseId": "ff44bc93-8e73-11f0-aefa-34b4ed86d8a9",
            "type": "out",
            "quantity": 22,
            "reference": "SALE-1757528932828-663",
            "reason": "Venda para cliente",
            "userId": "fe17333c-8e73-11f0-aefa-34b4ed86d8a9",
            "createdAt": "2025-09-10T18:28:53.000Z"
        },
        {
            "id": "00ec2572-8e74-11f0-aefa-34b4ed86d8a9",
            "productId": "ff9a7d63-8e73-11f0-aefa-34b4ed86d8a9",
            "warehouseId": "ff44bbf7-8e73-11f0-aefa-34b4ed86d8a9",
            "type": "in",
            "quantity": 163,
            "reference": "REC-1757528932828-378",
            "reason": "Recebimento inicial de stock",
            "userId": "fe17333c-8e73-11f0-aefa-34b4ed86d8a9",
            "createdAt": "2025-09-10T18:28:53.000Z"
        },
        {
            "id": "00ec25b8-8e74-11f0-aefa-34b4ed86d8a9",
            "productId": "ff9a7d63-8e73-11f0-aefa-34b4ed86d8a9",
            "warehouseId": "ff44bbf7-8e73-11f0-aefa-34b4ed86d8a9",
            "type": "out",
            "quantity": 29,
            "reference": "SALE-1757528932828-320",
            "reason": "Venda para cliente",
            "userId": "fe17333c-8e73-11f0-aefa-34b4ed86d8a9",
            "createdAt": "2025-09-10T18:28:53.000Z"
        },
        {
            "id": "00ec25fa-8e74-11f0-aefa-34b4ed86d8a9",
            "productId": "ff9a7d63-8e73-11f0-aefa-34b4ed86d8a9",
            "warehouseId": "ff44bc6d-8e73-11f0-aefa-34b4ed86d8a9",
            "type": "in",
            "quantity": 286,
            "reference": "REC-1757528932828-608",
            "reason": "Recebimento inicial de stock",
            "userId": "fe17333c-8e73-11f0-aefa-34b4ed86d8a9",
            "createdAt": "2025-09-10T18:28:53.000Z"
        },
        {
            "id": "00ec264e-8e74-11f0-aefa-34b4ed86d8a9",
            "productId": "ff9a7d63-8e73-11f0-aefa-34b4ed86d8a9",
            "warehouseId": "ff44bc6d-8e73-11f0-aefa-34b4ed86d8a9",
            "type": "out",
            "quantity": 19,
            "reference": "SALE-1757528932828-337",
            "reason": "Venda para cliente",
            "userId": "fe17333c-8e73-11f0-aefa-34b4ed86d8a9",
            "createdAt": "2025-09-10T18:28:53.000Z"
        },
        {
            "id": "00ec268d-8e74-11f0-aefa-34b4ed86d8a9",
            "productId": "ff9a7cf9-8e73-11f0-aefa-34b4ed86d8a9",
            "warehouseId": "ff44ba9c-8e73-11f0-aefa-34b4ed86d8a9",
            "type": "in",
            "quantity": 266,
            "reference": "REC-1757528932828-900",
            "reason": "Recebimento inicial de stock",
            "userId": "fe17333c-8e73-11f0-aefa-34b4ed86d8a9",
            "createdAt": "2025-09-10T18:28:53.000Z"
        }
    ],
    "pagination": {
        "page": 1,
        "limit": 10,
        "total": 132,
        "totalPages": 14,
        "hasNextPage": true,
        "hasPreviousPage": false
    }
}